<?xml version="1.0" encoding="UTF-8" standalone="no"?><svg xmlns="http://www.w3.org/2000/svg" xmlns:xlink="http://www.w3.org/1999/xlink" contentScriptType="application/ecmascript" contentStyleType="text/css" height="65px" preserveAspectRatio="none" style="width:113px;height:65px;" version="1.1" viewBox="0 0 113 65" width="113px" zoomAndPan="magnify"><defs/><g><!--MD5=[24b7ac025b426bbdd0f79845ae35f097]
entity strategyResource--><rect fill="#F8E7C0" height="52.6094" style="stroke:#000000;stroke-width:1.5;" width="100" x="7" y="7"/><image height="16" width="16" x="82" xlink:href="data:image/png;base64,iVBORw0KGgoAAAANSUhEUgAAABAAAAAQCAYAAAAf8/9hAAAAP0lEQVR4XmNgGCzgH4kYBfz7em/Vf1IwuiHUMwDGRqfRMdQAuCFkGYBk0Ig1AKYZxQBiMbJmqhgANoREPIgAAH+QtOBantO7AAAAAElFTkSuQmCC" y="17"/><text fill="#000000" font-family="sans-serif" font-size="14" lengthAdjust="spacing" textLength="61" x="26.5" y="46.5332">Resource</text><!--MD5=[f02bf637d201354c574496a73fe4eb3c]
@startuml

skinparam shadowing false
skinparam MinClassWidth 80
!include <archimate/Archimate>

Strategy_Resource(strategyResource, "Resource")
'Strategy_Capability(strategyCapability, "Capability")
'Strategy_CourseOfAction(strategyCourseOfAction, "Course of Action")
''Strategy_ValueStream(strategyValueStream, "Value Stream")
'
'Business_Actor(businessActor, "Business\nActor")
'Business_Role(businessRole, "Business\nRole")
'Business_Collaboration(businessCollaboration, "Business\nCollaboration")
'Business_Interface(businessInterface, "Business\nInterface")
'Business_Process(businessProcess, "Business\nProcess")
'Business_Function(businessFunction, "Business\nFunction")
'Business_Interaction(businessInteraction, "Business\nInteraction")
'Business_Event(businessEvent, "Business\nEvent")
'Business_Service(businessService, "Business\nService")
'Business_Object(businessObject, "Business\nObject")
'Business_Contract(businessContract, "Contract\n")
'Business_Representation(businessRepresentation, "Representation\n")
'Business_Product(businessProduct, "Product")
''Business_Location(businessLocation, "Location")
'Application_Component(applicationComponent, "Application\nComponent")
'Application_Collaboration(applicationCollaboration, "Application\nCollaboration")
'Application_Interface(applicationInterface, "Application\nInterface")
'Application_Function(applicationFunction, "Application\nFunction")
'Application_Interaction(applicationInteraction, "Application\nInteraction")
'Application_Process(applicationProcess, "Application\nProcess")
'Application_Event(applicationEvent, "Application\nEvent")
'Application_Service(applicationService, "Application\nService")
'Application_DataObject(applicationDataObject, "Data Object\n")
'Technology_Node(technologyNode, "Node\n")
'Technology_Device(technologyDevice, "Device")
'Technology_SystemSoftware(technologySystemSoftware, "System\nSoftware")
'Technology_Collaboration(technologyCollaboration, "Technology\nCollaboration")
'Technology_Interface(technologyInterface, "Technology\nInterface")
'Technology_Path(technologyPath, "Path\n")
'Technology_CommunicationNetwork(technologyCommunicationNetwork, "Communication\nNetwork")
'Technology_Function(technologyFunction, "Technology\nFunction")
'Technology_Process(technologyProcess, "Technology\nProcess")
'Technology_Interaction(technologyInteraction, "Technology\nInteraction")
'Technology_Event(technologyEvent, "Technology\nEvent")
'Technology_Service(technologyService, "Technology\nService")
'Technology_Artifact(technologyArtifact, "Artifact\n")
'Physical_Equipment(physicalEquipment, "Equipment")
'Physical_Facility(physicalFacility, "Facility")
'Physical_DistributionNetwork(physicalDistributionNetwork, "Distribution Network")
'Physical_Material(physicalMaterial, "Material")
'Motivation_Stakeholder(motivationStakeholder, "Stakeholder")
'Motivation_Driver(motivationDriver, "Driver")
'Motivation_Assessment(motivationAssessment, "Assessment")
'Motivation_Goal(motivationGoal, "Goal")
'Motivation_Outcome(motivationOutcome, "Outcome")
'Motivation_Principle(motivationPrinciple, "Principle")
'Motivation_Requirement(motivationRequirement, "Requirement")
'Motivation_Constraint(motivationConstraint, "Constraint")
'Motivation_Meaning(motivationMeaning, "Meaning")
'Motivation_Value(motivationValue, "\nValue\n")
'Implementation_WorkPackage(implementationWorkPackage, "Work Package")
'Implementation_Deliverable(implementationDeliverable, "Deliverable")
'Implementation_Event(implementationEvent, "Implementation Event")
'Implementation_Plateau(implementationPlateau, "Plateau")
'Implementation_Gap(implementationGap, "Gap")


@enduml

@startuml

skinparam shadowing false
skinparam MinClassWidth 80


skinparam defaultTextAlignment center
skinparam wrapWidth 400
skinparam maxMessageSize 150
skinparam StereotypeAlignment right

skinparam Arrow {
    Color #000000
    FontColor #000000
    FontSize 12
}
skinparam Folder<<grouping>> {
    Shadowing true
    StereotypeFontSize 0
    FontColor #444444
    BorderColor #444444
    BorderStyle dashed
}
skinparam Folder<<group>> {
    Shadowing true
    StereotypeFontSize 0
    FontColor #444444
    BackgroundColor lightgrey
}
skinparam rectangle<<boundary>> {
    Shadowing false
    StereotypeFontSize 0
    FontColor #444444
    BorderColor #444444
    BorderStyle dashed
}
skinparam node {
  StereotypeAlignment right
}
skinparam cloud {
  StereotypeAlignment right
}
skinparam frame {
  StereotypeAlignment right
}
skinparam archimate {
  StereotypeAlignment right
  RoundCorner<<strategy-capability>> 25
  RoundCorner<<strategy-course-of-action>> 25
  RoundCorner<<business-process>> 25
  RoundCorner<<business-function>> 25
  RoundCorner<<business-interaction>> 25
  RoundCorner<<business-event>> 25
  RoundCorner<<business-service>> 25
  RoundCorner<<application-function>> 25
  RoundCorner<<application-interaction>> 25
  RoundCorner<<application-process>> 25
  RoundCorner<<application-event>> 25
  RoundCorner<<application-service>> 25
  RoundCorner<<technology-function>> 25
  RoundCorner<<technology-process>> 25
  RoundCorner<<technology-interaction>> 25
  RoundCorner<<technology-event>> 25
  RoundCorner<<technology-infra-service>> 25
  RoundCorner<<implementation-workpackage>> 25
  RoundCorner<<implementation-event>> 25
  DiagonalCorner<<motivation-stakeholder>> 12
  DiagonalCorner<<motivation-driver>> 12
  DiagonalCorner<<motivation-assessment>> 12
  DiagonalCorner<<motivation-goal>> 12
  DiagonalCorner<<motivation-outcome>> 12
  DiagonalCorner<<motivation-principle>> 12
  DiagonalCorner<<motivation-requirement>> 12
  DiagonalCorner<<motivation-constraint>> 12
}
skinparam usecase {
  BorderColor #000000
}



























archimate #STRATEGY "Resource" <<strategy-resource>> as strategyResource


@enduml

PlantUML version 1.2021.00(Sun Jan 10 11:25:05 CET 2021)
(GPL source distribution)
Java Runtime: OpenJDK Runtime Environment
JVM: OpenJDK 64-Bit Server VM
Default Encoding: Cp1252
Language: en
Country: US
--></g></svg>